<?xml version="1.0" encoding="UTF-8" standalone="no"?>
<svg
   xmlns:dc="http://purl.org/dc/elements/1.1/"
   xmlns:cc="http://creativecommons.org/ns#"
   xmlns:rdf="http://www.w3.org/1999/02/22-rdf-syntax-ns#"
   xmlns:svg="http://www.w3.org/2000/svg"
   xmlns="http://www.w3.org/2000/svg"
   xmlns:sodipodi="http://sodipodi.sourceforge.net/DTD/sodipodi-0.dtd"
   xmlns:inkscape="http://www.inkscape.org/namespaces/inkscape"
   height="16"
   width="16"
   id="svg2"
   version="1.1"
   sodipodi:docname="leftpane.svg"
   inkscape:version="1.0.1 (3bc2e813f5, 2020-09-07)"
   inkscape:export-filename="/home/juliette/Documents/python/tkPDFviewer/tkpdfviewerlib/images/leftpane.png"
   inkscape:export-xdpi="108"
   inkscape:export-ydpi="108">
  <sodipodi:namedview
     pagecolor="#ffffff"
     bordercolor="#666666"
     borderopacity="1"
     objecttolerance="10"
     gridtolerance="10"
     guidetolerance="10"
     inkscape:pageopacity="0"
     inkscape:pageshadow="2"
     inkscape:window-width="1920"
     inkscape:window-height="1027"
     id="namedview7"
     showgrid="false"
     inkscape:zoom="35.841475"
     inkscape:cx="10.572481"
     inkscape:cy="10.859535"
     inkscape:window-x="0"
     inkscape:window-y="27"
     inkscape:window-maximized="1"
     inkscape:current-layer="g4" />
  <metadata
     id="metadata12">
    <rdf:RDF>
      <cc:Work
         rdf:about="">
        <dc:format>image/svg+xml</dc:format>
        <dc:type
           rdf:resource="http://purl.org/dc/dcmitype/StillImage" />
        <dc:title></dc:title>
      </cc:Work>
    </rdf:RDF>
  </metadata>
  <defs
     id="defs10" />
  <g
     color="#bebebe"
     transform="matrix(0.89358945,0,0,0.89358945,-815.40089,-50.083314)"
     id="g4">
    <path
       d="m 915,59 c 0,0 -1,0 -1,1 v 10 c 0,0 0,1 1,1 h 13 c 0,0 1,0 1,-1 V 60 c 0,-1 -1,-1 -1,-1 z m 0,1 h 3.00121 V 70 H 915 v -9.5 z m 4.00121,0 H 928 v 10 h -8.99879 z"
       fill="#666666"
       overflow="visible"
       style="marker:none;fill:#000000;fill-opacity:1"
       id="path6"
       sodipodi:nodetypes="cscscssccccccccccccc" />
    <path
       style="fill:#acacac;fill-opacity:1;stroke:#333333;stroke-width:0.00558013;stroke-linecap:round"
       d="m 2.2441402,7.9997196 v -4.464102 h 1.3252803 1.3252803 v 4.464102 4.4641024 H 3.5694205 2.2441402 Z"
       id="path832"
       transform="matrix(1.1190821,0,0,1.1190821,912.50058,56.047343)" />
  </g>
</svg>
